^C:\USERS\SHIFATKHAN\DOCUMENTS\VISUAL STUDIO 2017\PROJECTS\KINGOFNEWYORK\KINGOFNEWYORK\MAIN.CPP
C:\USERS\SHIFATKHAN\DOCUMENTS\VISUAL STUDIO 2017\PROJECTS\KINGOFNEWYORK\KINGOFNEWYORK\DEBUG\VC141.PDB
C:\USERS\SHIFATKHAN\DOCUMENTS\VISUAL STUDIO 2017\PROJECTS\KINGOFNEWYORK\KINGOFNEWYORK\DEBUG\VC141.IDB
C:\USERS\SHIFATKHAN\DOCUMENTS\VISUAL STUDIO 2017\PROJECTS\KINGOFNEWYORK\KINGOFNEWYORK\DEBUG\MAIN.OBJ
